…
## Combine the Data

``` r
precip_combined_data = 
  bind_rows(precip_2018_data,precip_2019_data) %>% 
  mutate(month = month.name[month])

precip_combined_data
```

    ## # A tibble: 24 x 3
    ##    month     total  year
    ##    <chr>     <dbl> <dbl>
    ##  1 January    0.94  2018
    ##  2 February   4.8   2018
    ##  3 March      2.69  2018
    ##  4 April      4.69  2018
    ##  5 May        9.27  2018
    ##  6 June       4.77  2018
    ##  7 July      10.2   2018
    ##  8 August     6.45  2018
    ##  9 September 10.5   2018
    ## 10 October    2.12  2018
    ## # ... with 14 more rows
